[
    {
        "text": "Signály STROBE a BUSY používá rozhraní\n",
        "correct": "3",
        "answers": {
            "1": "RS-232",
            "2": "V.24",
            "3": "Centronics",
            "4": "USB"
        }
    },
    {
        "text": "Paralelní rozhraní je\n",
        "correct": "2",
        "answers": {
            "1": "RS-232.",
            "2": "Centronics."
        }
    },
    {
        "text": "Rozhraní Centronics: Signál !STROBE je v aktivní úrovni\n",
        "correct": "4",
        "answers": {
            "1": "dokud neuplyne doba \"předstih\"",
            "2": "dokud neuplyne doba \"přesah\"",
            "3": "dokud tiskárna signálem BUSY neoznámí konec zpracování",
            "4": "pevně stanovenou dobu"
        }
    },
    {
        "text": "Rozhraní Centronics: Signál !STROBE je v aktivní úrovni\n",
        "correct": "1",
        "answers": {
            "1": "když přenáší hodnotu logická \"0\"",
            "2": "když přenáší hodnotu logická \"1\""
        }
    },
    {
        "text": "Rozhraní RS-232C: Přenos dat tímto rozhraním je:\n",
        "correct": "3",
        "answers": {
            "1": "synchronní",
            "2": "asynchronní",
            "3": "synchronní i asynchronní",
            "4": "nic z toho"
        }
    },
    {
        "text": "Rozhraní RS-232C: Jaké zapojení nulmodemu je nesmyslné?\n",
        "correct": "2",
        "answers": {
            "1": "SG--SG, TxD--RxD, RxD--TxD",
            "2": "SG--SG, TxD--TxD, RxD--RxD",
            "3": "SG--SG, TxD--RxD, RxD--TxD, RTS+CTS--DCD, DCD--RTS+CTS"
        }
    },
    {
        "text": "USB při komunikaci používá protokol\n",
        "correct": "1",
        "answers": {
            "1": "Master-Slave",
            "2": "CSMA/CD",
            "3": "Token-Ring"
        }
    }
]