[
    {
        "text": "Listina základních práv a svobod zaručuje",
        "correct": ["1", "2", "3", "4", "5", "7", "8"],
        "answers": {
            "1": "listovní tajemství písemností uchovávaných v soukromí",
            "2": "listovní tajemství písemností zasílaných poštou",
            "3": "tajemství zpráv podávaných telefonem",
            "4": "tajemství zpráv podávaných elektronickou poštou",
            "5": "právo na zachování dobré pověsti",
            "6": "právo na ochranu obchodního tajemství",
            "7": "právo na ochranu jména",
            "8": "právo na ochranu před neoprávněným shromaždováním osobních údajů"
        }
    },
    {
        "text": "Obrazové a zvukové záznamy týkající se fyzické osoby mohou být pořízeny",
        "correct": ["1", "3", "4"],
        "answers": {
            "1": "s jejím souhlasem",
            "2": "bez jejího souhlasu",
            "3": "k účelům úředním na základě zákona",
            "4": "na základě \"zpravodajské licence\""
        }
    },
    {
        "text": "Po smrti fyzické osoby přísluší uplatňovat právo na",
        "correct": ["1", "4"],
        "answers": {
            "1": "ochranu její osobnosti jejím dětem",
            "2": "ochranu její osobnosti jejím dědicům",
            "3": "náhradu škody způsobené neoprávněným zásahem do práva na ochranu osobnosti dětem",
            "4": "náhradu škody způsobené neoprávněným zásahem do práva na ochranu osobnosti dědicům"
        }
    },
    {
        "text": "Písemnosti osobní povahy mohou být použity",
        "correct": ["1", "3"],
        "answers": {
            "1": "se souhlasem osoby, která je vytvořila",
            "2": "bez souhlasu osoby, která je vytvořila",
            "3": "k účelům úředním na základě zákona",
            "4": "na základě \"zpravodajské licence\""
        }
    },
    {
        "text": "Obchodní tajemství",
        "correct": ["1", "3", "5"],
        "answers": {
            "1": "je vždy předmětem práv náležejících k podniku",
            "2": "patří vždy do majetku obchodní společnosti",
            "3": "jedná se o autorská práva a technické vynálezy",
            "4": "je zaznamenáno u Úřadu průmyslového vlastnictví",
            "5": "zahrnuje tehcnické licence a autorská práva naležející k podniku",
            "6": "registruje se u Úřadu průmyslového vlastnictví"
        }
    },
    {
        "text": "Při porušení nebo ohrožení práva na obchodní tajemství má dotknutý právo na",
        "correct": ["1", "3", "4"],
        "answers": {
            "1": "odstranění závadného stavu",
            "2": "zaplacení pokuty",
            "3": "zadostiučinění",
            "4": "vydáni bezdůvodného obohacení"
        }
    },
    {
        "text": "Majetková autorská práva",
        "correct": ["1", "3", "4"],
        "answers": {
            "1": "jejich držitelem může být pouze fyzická osoba způsobilá k právním úkonům, která dílo vytvořila",
            "2": "obecně trvají 50 let po smrti autora",
            "3": "nelze se jich vzdát a jsou nepřevoditelná",
            "4": "po smrti autora přecházeji jeho dědice"
        }
    },
    {
        "text": "Osobnostní autorská práva",
        "correct": ["1", "2", "3"],
        "answers": {
            "1": "autorem může být pouze fyzická osoba způsobilá k právním úkonům",
            "2": "o zveřejnění díla rozhoduje autor",
            "3": "autorství je nepřevoditelné a autor se jej nemůže vzdát",
            "4": "smrtí autora přechází autorská práva na dědice"
        }
    },
    {
        "text": "Omezení autorského práva",
        "correct": ["1", "2", "3"],
        "answers": {
            "1": "pro osobní potřebu může být vždy dílo užito bez svolení autora",
            "2": "citace cizího díla nejsou zásahem do autorských práv",
            "3": "nevýdělečné užití díla při školních představních není zásahem do autorských práv",
            "4": "majetková práva ke školnímu dílu vykonáva škola"
        }
    },
    {
        "text": "Počítačový program",
        "correct": ["1", "3"],
        "answers": {
            "1": "je chráněn stejně jako literární dílo",
            "2": "myšlenky, princípy a přípravné koncepční materiály jsou chráněny jako součást počítačového programu",
            "3": "oprávněný uživatel počítačového programu v něm smí opravovat chyby",
            "4": "uživatel počítačového programu nesmí zhotovovat jeho záložní kopie"
        }
    },
    {
        "text": "Zaměstnanecký vztah",
        "correct": ["1", "2", "4"],
        "answers": {
            "1": "veškerá práva k dílům vykonává zaměstnanec",
            "2": "po zániku právnické osoby bez právního nástupce přecházejí práva na autora",
            "3": "při zhotovení počítačového programu na objednávku má autor právo na přiměřenou dodatečnou odměnu",
            "4": "počítačové programy se považují za zaměstnanecká díla i tehdy, byla-li autorem vytvořena na objednávku"
        }
    },
    {
        "text": "Při porušení autorského práva má autor právo se domáhat",
        "correct": ["1", "3", "4"],
        "answers": {
            "1": "odstranění následků neoprávněných zásahů do autorského práva",
            "2": "zaplacení pokuty",
            "3": "zadostiučinění",
            "4": "vydání neoprávněného obohacení"
        }
    },
    {
        "text": "Právo průmyslového vlastnictví chráni",
        "correct": ["2", "4"],
        "answers": {
            "1": "autorská díla",
            "2": "biotechnologické vynálezy",
            "3": "obchodní tajemství",
            "4": "zlepšovací návrhy"
        }
    },
    {
        "text": "Vynálezy",
        "correct": ["1", "2", "3", "4"],
        "answers": {
            "1": "patentovatelné jsou jen nové vynálezy",
            "2": "patentovatelné jsou jen průmyslově využitelné vynálezy",
            "3": "patent nemůže být nikdy udělen na počítačový program",
            "4": "právo k patentu má jeho autor"
        }
    },
    {
        "text": "Zánik patentu",
        "correct": ["3", "4"],
        "answers": {
            "1": "majitel patentu je povinnen vynález prakticky využívat",
            "2": "patent může být zrušen, pokud jej majitel nevyužívá",
            "3": "patent zaniká, uplyne-li doba jeho platnosti",
            "4": "patent zaniká, nezaplatí-li majitel poplatky za udržování platnosti patentu"
        }
    },
    {
        "text": "Databáze",
        "correct": [],
        "answers": {
            "1": "se považuje za souborné autorské dílo",
            "2": "majetkové autorské právo k databázi trvá 15 let od jejího pořizení",
            "3": "může být neomezeně vytěžována jen, je-li veřejně přístupná",
            "4": "může být neomezeně vytěžována pro osobní potřebu uživatele"
        }
    },
    {
        "text": "Správce je povinnen",
        "correct": ["1", "2", "3"],
        "answers": {
            "1": "prokázat souhlas subjektu údajů po celou dobu zpracovávání",
            "2": "informovat subjekt údajů, kdo a jakým způsobem bude údaje zpracovávat",
            "3": "informovat subjekt údajů, komu mohou být jeho údaje zpřístupněny",
            "4": "pravidelně jednou ročně zaslat subjektu údajů ... zpracovávaných"
        }
    },
    {
        "text": "Bez souhlasu subjektu údajů může správce zpracovávat osobní údaje",
        "correct": ["1", "2", "3", "4", "5"],
        "answers": {
            "1": "jestliže provádí zpracování upravené zvlášním zákonem",
            "2": "jestliže provádí zpracování nezbytné pro dodržení právní povinnosti správce",
            "3": "je-li to nezbytné k ochraně životně důležitých zájmu subjektu údajů",
            "4": "pokládá-li to za nezbytné k ochrane svých zájmu",
            "5": "na základě písemné smlouvy se subjektem údajů"
        }
    },
    {
        "text": "Citlivé údaje může správce zpracovat",
        "correct": ["1", "2", "4"],
        "answers": {
            "1": "jestliže je zpracování nezbytné pro zajištení a uplatnění právnich nároků",
            "2": "pokládá-li to za nezbytné k ochraně životně důležitých zájmu subjektu údajů",
            "3": "pokládá-li to za nezbytné k ochrane svých zájmu",
            "4": "na základě písemné smlouvy se subjektem údajů"
        }
    },
    {
        "text": "Při porušení povinností při zpracování osobních údajů má subjekt údajů právo domáhat se",
        "correct": ["1", "2", "3", "4"],
        "answers": {
            "1": "odstranění následků takového jednání",
            "2": "zaplacení pokuty",
            "3": "zadostučinění",
            "4": "vydání bezdůvodného obohacení"
        }
    },
    {
        "text": "Zaměstnanci správce",
        "correct": ["2", "3", "4"],
        "answers": {
            "1": "musí uzavřít dohodu o ochraně zpracovávaných dat",
            "2": "mohou zpracovávat osobní údaje pouze v rozsahu stanoveným  správcem",
            "3": "mají doživotní povinnost mlčenlivosti o zpracovávných informacích",
            "4": "mají doživotní povinnost mlčenlivosti o bezpečnostních opatřeních, jejichž zveřejnění by ohrozilo zabezpečení osobních údajů"
        }
    },
    {
        "text": "Podle zákona o svobodném přístupu k informacím jsou",
        "correct": ["1", "2", "3", "4"],
        "answers": {
            "1": "povinnými subjekty státní orgány",
            "2": "povinnými subjekty všichni, kdo hospodaří s veřejnými prostředky",
            "3": "žadateli fyzické osoby způsobilé k právním úkonům",
            "4": "žadateli veškeré právnické osoby"
        }
    },
    {
        "text": "Podle zákona o svobodném přístupu k informacím nesmí být poskytnuty informace, které jsou",
        "correct": ["1", "2"],
        "answers": {
            "1": "utajovanými informacemi",
            "2": "obchodním tajemstvím",
            "3": "osobními údaji",
            "4": "informacemi o rozhodnutíc orgánů státní správy"
        }
    },
    {
        "text": "Informace vyžádaná podle zákona o svobodném přístupu k informacím se předá",
        "correct": ["1", "2", "3", "4"],
        "answers": {
            "1": "zveřejněním na úřední desce",
            "2": "zveřejněním dálkovým přístupem (Internet)",
            "3": "odkazem na zveřejněnou informaci",
            "4": "písemně"
        }
    },
    {
        "text": "Osobní údaje",
        "correct": ["1", "2", "3"],
        "answers": {
            "1": "určitelnou osobou je osoba, o níž je známo jméno, příjmení, bydliště a datum narození",
            "2": "citlivým údajem je příslušnost k politické straně nebo hnutí",
            "3": "osobní údaj může být anonymizován",
            "4": "údaje o osobě se dělí na osobní a neosobní"
        }
    },
    {
        "text": "Při neoprávněném zveřejnění osobních údajů má subjekt údajů právo žádat",
        "correct": ["1", "2", "3", "4"],
        "answers": {
            "1": "odstranění způsobených škod",
            "2": "zaplacení pokuty",
            "3": "zadostiučinění",
            "4": "vydání bezdůvodného obohacení"
        }
    },
    {
        "text": "Utajované informace mohou být poskytovány organizaci, která",
        "correct": ["1", "2", "3", "4"],
        "answers": {
            "1": "je administrativně bezpečná",
            "2": "není v likvidaci či v konkursu",
            "3": "má certifikovaný vnitřní informační systém",
            "4": "vypracovala bezpečnostní projekt"
        }
    },
    {
        "text": "Trestné činy v souvislosti s utajovanými informacemi",
        "correct": ["2", "3"],
        "answers": {
            "1": "projednávají vojenské soudy",
            "2": "vyzvedačství může být trestáno vyjimečným trestem",
            "3": "ohrožení utajované informace je trestné, i když je spácháno z nedbalosti",
            "4": "vyzvedačství utajované informace v kategorií \"Vyhrazené\" je přestupkem"
        }
    },
    {
        "text": "V souvislosti s ochranou utajovaných informací...",
        "correct": ["1", "2", "3", "4"],
        "answers": {
            "1": "dodržovat nutná omezení stanovená vládou",
            "2": "podrobit se bezpečnostní prověrce",
            "3": "odevzdat nalezenou utajovanou informaci",
            "4": "zachovávat mlčenlivost o utajovaných informacích"
        }
    }
]
