[
    {
        "text": "Look, I'll tell you when _____, OK?\n",
        "correct": "3",
        "answers": {
            "1": "I'll have finished",
            "2": "I'm to finish",
            "3": "I've finished"
        }
    },
    {
        "text": "By the end of the month, everything _____.\n",
        "correct": "3",
        "answers": {
            "1": "is being sorted out",
            "2": "gets sorted out",
            "3": "will have been sorted out"
        }
    },
    {
        "text": "_____ to this police station every day this week at 9 o'clock.\n",
        "correct": "3",
        "answers": {
            "1": "You'll have reported",
            "2": "I hope you will report",
            "3": "You are to report"
        }
    },
    {
        "text": "When we _____ to the service station, we'll stop and get some water.\n",
        "correct": "3",
        "answers": {
            "1": "will get",
            "2": "are getting",
            "3": "get"
        }
    },
    {
        "text": "I doubt whether _____ time, to be honest.\n",
        "correct": "1",
        "answers": {
            "1": "we'll have",
            "2": "we're on the point of having",
            "3": "we're going to be having"
        }
    },
    {
        "text": "_____ in a second.\n",
        "correct": "3",
        "answers": {
            "1": "I'm due back",
            "2": "I'm going to be back",
            "3": "I'll be back"
        }
    },
    {
        "text": "If you've been away, you _____ what happened to Jeremy.\n",
        "correct": "3",
        "answers": {
            "1": "don't hear",
            "2": "won't be hearing",
            "3": "won't have heard"
        }
    },
    {
        "text": "`What _____ do about this mess?' said Tom's mother.\n",
        "correct": "1",
        "answers": {
            "1": "are you intending to",
            "2": "will you",
            "3": "are you due to"
        }
    },
    {
        "text": "If you come at 2.00, _____.\n",
        "correct": "2",
        "answers": {
            "1": "I'm still working",
            "2": "I'll still be working",
            "3": "I still work"
        }
    },
    {
        "text": "By the end of the month, everything _____ much clearer.\n",
        "correct": "3",
        "answers": {
            "1": "will have been",
            "2": "can be",
            "3": "will be"
        }
    },
    {
        "text": "You can use my bike if you want. _____ it until tomorrow.\n",
        "correct": "3",
        "answers": {
            "1": "I can't need",
            "2": "I'm not needing",
            "3": "I won't be needing"
        }
    },
    {
        "text": "I expect he _____ to the match tonight as usual.\n",
        "correct": "1",
        "answers": {
            "1": "will be going",
            "2": "goes",
            "3": "is to go"
        }
    },
    {
        "text": "By _____ I'll be sipping a cool drink by the hotel pool!\n",
        "correct": "3",
        "answers": {
            "1": "the next day",
            "2": "tomorrow",
            "3": "this time tomorrow"
        }
    },
    {
        "text": "Sorry, there's just no way I _____ it before lunchtime.\n",
        "correct": "2",
        "answers": {
            "1": "finish",
            "2": "can finish",
            "3": "will be finish"
        }
    },
    {
        "text": "Do you think _____ Ian later?\n",
        "correct": "2",
        "answers": {
            "1": "you`re to see",
            "2": "you'll be seeing",
            "3": "you'll have seen"
        }
    },
    {
        "text": "No, madam, the match on court 5 isn't _____ until 2.30.\n",
        "correct": "3",
        "answers": {
            "1": "about to start",
            "2": "on the point of starting",
            "3": "due to start"
        }
    },
    {
        "text": "_____ a look just as soon as I'm free.\n",
        "correct": "2",
        "answers": {
            "1": "I'll have come and had",
            "2": "I'll come and have",
            "3": "I'm coming and having"
        }
    },
    {
        "text": "Quick, pass the bucket. _____ sick!\n",
        "correct": "3",
        "answers": {
            "1": "I can be",
            "2": "I'll be",
            "3": "I'm going to be"
        }
    },
    {
        "text": "Just stay calm - it _____ long now before the ambulance arrives.\n",
        "correct": "1",
        "answers": {
            "1": "won't be",
            "2": "isn't",
            "3": "isn't going to be"
        }
    }
]
