[
    {
        "text": "I thought we should go tomorrow _____ Friday.",
        "correct": "2",
        "answers": {
            "1": "whereas",
            "2": "as opposed to",
            "3": "in contrast to"
        }
    },
    {
        "text": "I wasn't sure about his last point, but _____ I agreed with what he said.",
        "correct": "1",
        "answers": {
            "1": "by and large",
            "2": "even so",
            "3": "accordingly"
        }
    },
    {
        "text": "_____, did you remember to post that letter?",
        "correct": "2",
        "answers": {
            "1": "As well as",
            "2": "By the way",
            "3": "Having said that"
        }
    },
    {
        "text": "David's a decent enough club golfer. _____, he's never going to make the big time.",
        "correct": "3",
        "answers": {
            "1": "Whereas",
            "2": "On the contrary",
            "3": "However"
        }
    },
    {
        "text": "I think his argument is valid _____.",
        "correct": "3",
        "answers": {
            "1": "in the first place",
            "2": "accordingly",
            "3": "to some extent"
        }
    },
    {
        "text": "I quite like beach holidays, _____ my wife likes cultural stuff in towns.",
        "correct": "1",
        "answers": {
            "1": "whereas",
            "2": "on the contrary",
            "3": "on the other hand"
        }
    },
    {
        "text": "We are sorry to inform you that there has been a lightning strike by some TV engineers. _____, we are unable to bring you the second half of this match.",
        "correct": "3",
        "answers": {
            "1": "Moreover",
            "2": "On the contrary",
            "3": "Consequently"
        }
    },
    {
        "text": "It's been a lovely holiday so far. _____, Monday wasn't too great.",
        "correct": "3",
        "answers": {
            "1": "On the whole",
            "2": "On top of that",
            "3": "Having said that"
        }
    },
    {
        "text": "_____ owing Jack Ł20, I've still got to pay my car insurance for last month.",
        "correct": "2",
        "answers": {
            "1": "Moreover",
            "2": "As well as",
            "3": "Not only"
        }
    },
    {
        "text": "I can't be bothered to go out. I've got too much work to do _____.",
        "correct": "1",
        "answers": {
            "1": "for a start",
            "2": "furthermore",
            "3": "having said that"
        }
    },
    {
        "text": "_____, I always thought he looked a rather suspicious character.",
        "correct": "2",
        "answers": {
            "1": "As a result",
            "2": "To tell the truth",
            "3": "As opposed to"
        }
    },
    {
        "text": "_____, she's failed her exams as well as losing her boyfriend.",
        "correct": "3",
        "answers": {
            "1": "Not only",
            "2": "As well as",
            "3": "To make matters worse"
        }
    },
    {
        "text": "He had a nasty fall, _____ of which he was off work for a week.",
        "correct": "1",
        "answers": {
            "1": "as a result",
            "2": "hence",
            "3": "despite the fact"
        }
    },
    {
        "text": "_____, this will be a good year for those born under Aries, although it won't be without a few little problems.",
        "correct": "3",
        "answers": {
            "1": "In addition to",
            "2": "Not only",
            "3": "Broadly speaking"
        }
    },
    {
        "text": "I don't think I'm going to be able to do this course. _____, I don't understand about computer programming.",
        "correct": "2",
        "answers": {
            "1": "Consequently",
            "2": "For a start",
            "3": "On the contrary"
        }
    },
    {
        "text": "Our swimmers and gymnasts picked up several Olympic medals. _____, the athletics team had a miserable time.",
        "correct": "3",
        "answers": {
            "1": "As opposed to",
            "2": "Whereas",
            "3": "In contrast"
        }
    },
    {
        "text": "I didn't get the job but, _____, I wasn't all that bothered.",
        "correct": "3",
        "answers": {
            "1": "furthermore",
            "2": "for one thing",
            "3": "to tell the truth"
        }
    },
    {
        "text": "_____, I thought it was a load of rubbish, but don't tell Jim that.",
        "correct": "2",
        "answers": {
            "1": "Although",
            "2": "To be perfectly honest",
            "3": "Despite the fact that"
        }
    },
    {
        "text": "_____ is it pouring with rain, but the wind's getting up as well.",
        "correct": "1",
        "answers": {
            "1": "Not only",
            "2": "In addition to",
            "3": "Although"
        }
    },
    {
        "text": "It's so expensive going out now. _____, you've got to treat yourself once in a while.",
        "correct": "1",
        "answers": {
            "1": "All the same",
            "2": "What's more",
            "3": "At any rate"
        }
    }
]