[
    {
        "text": "Gordon _____ to take on the project, provided that he could have some IT support.",
        "correct": "2",
        "answers": {
            "1": "permitted",
            "2": "agreed",
            "3": "remarked"
        }
    },
    {
        "text": "Mr Porter_____ Clare to take a credit card with her rather than cash.",
        "correct": "1",
        "answers": {
            "1": "advised",
            "2": "suggested",
            "3": "supposed"
        }
    },
    {
        "text": "When Nick _____ to withdraw his support, Claire suddenly became much less critical.",
        "correct": "3",
        "answers": {
            "1": "claimed",
            "2": "considered",
            "3": "threatened"
        }
    },
    {
        "text": "Mike said that if he _____ about the dog's erratic behaviour, he would never have bought it.",
        "correct": "1",
        "answers": {
            "1": "had known",
            "2": "knows",
            "3": "knew"
        }
    },
    {
        "text": "Dawn said she _____ what the professor was talking about.",
        "correct": "3",
        "answers": {
            "1": "couldn't understood",
            "2": "can't understand",
            "3": "couldn't understand"
        }
    },
    {
        "text": "Sarah _____ me as her 'work colleague', which wasn't strictly true.",
        "correct": "1",
        "answers": {
            "1": "introduced",
            "2": "claimed",
            "3": "explained"
        }
    },
    {
        "text": "I _____ there would be more restaurants in the town centre.",
        "correct": "2",
        "answers": {
            "1": "wanted",
            "2": "expected",
            "3": "preferred"
        }
    },
    {
        "text": "The salesman _____ Derek to sign up for the insurance policy.",
        "correct": "2",
        "answers": {
            "1": "argued",
            "2": "persuaded",
            "3": "made"
        }
    },
    {
        "text": "Dave _____ that nobody was buying his pictures at the moment.",
        "correct": "3",
        "answers": {
            "1": "supposed",
            "2": "threatened",
            "3": "complained"
        }
    },
    {
        "text": "Julia _____ against going to Bolivia for the funeral.",
        "correct": "3",
        "answers": {
            "1": "accepted",
            "2": "persuaded",
            "3": "decided"
        }
    },
    {
        "text": "Her coach _____ Anita not to drop out of the race.",
        "correct": "1",
        "answers": {
            "1": "urged",
            "2": "insisted",
            "3": "repeated"
        }
    },
    {
        "text": "Martin said he _____ to be back by 10.00 at the latest.",
        "correct": "1",
        "answers": {
            "1": "was hoping",
            "2": "have hoped",
            "3": "will hope"
        }
    },
    {
        "text": "John said that when he saw us in our fancy dress, he _____ we'd all gone mad.",
        "correct": "1",
        "answers": {
            "1": "thought",
            "2": "thinks",
            "3": "had thought"
        }
    },
    {
        "text": "Marcy _____ taking a pedal boat out on the river.",
        "correct": "2",
        "answers": {
            "1": "announced",
            "2": "suggested",
            "3": "thought"
        }
    },
    {
        "text": "Frank _____ that all club members should pay Ł5 towards the costs of the new boathouse.",
        "correct": "3",
        "answers": {
            "1": "invited",
            "2": "advised",
            "3": "proposed"
        }
    },
    {
        "text": "Terry _____ on finishing his speech even though it was clear everyone was getting bored.",
        "correct": "2",
        "answers": {
            "1": "urged",
            "2": "insisted",
            "3": "demanded"
        }
    },
    {
        "text": "Everyone _____ Lucy on passing her driving test.",
        "correct": "1",
        "answers": {
            "1": "congratulated",
            "2": "welcomed",
            "3": "supported"
        }
    },
    {
        "text": "John _____ that everyone go back to his house for more celebrations.",
        "correct": "2",
        "answers": {
            "1": "persuaded",
            "2": "insisted",
            "3": "invited"
        }
    },
    {
        "text": "John _____ not to tell anyone our secret.",
        "correct": "1",
        "answers": {
            "1": "promised",
            "2": "declared",
            "3": "urged"
        }
    },
    {
        "text": "Tessa _____ that she was happy to continue with the existing arrangement.",
        "correct": "3",
        "answers": {
            "1": "objected",
            "2": "advised",
            "3": "confirmed"
        }
    }
]